{
  "current_page": 1,
  "data": [
    {
      "amount": "790.00",
      "coin": "BANK_MLC",
      "coin_data": "[Object]",
      "created_at": "2023-10-09T23:48:29.000000Z",
      "id": 70511,
      "only_kyc": 0,
      "owner": "[Object]",
      "peer_id": 0,
      "private": 0,
      "receive": "898.000000000000",
      "status": "open",
      "type": "sell",
      "updated_at": "2023-10-09T23:48:29.000000Z",
      "user_id": 11937,
      "uuid": "00f82141-1127-4192-a442-963820ac08a3"
    },
    {
      "amount": "15.00",
      "coin": "BANK_CUP",
      "coin_data": "[Object]",
      "created_at": "2023-10-09T23:46:44.000000Z",
      "id": 70510,
      "only_kyc": 0,
      "owner": "[Object]",
      "peer_id": 0,
      "private": 0,
      "receive": "3750.000000000000",
      "status": "open",
      "type": "sell",
      "updated_at": "2023-10-09T23:46:44.000000Z",
      "user_id": 198723,
      "uuid": "08c3c371-d49c-4c45-adfd-729afeb787d6"
    },
    {
      "amount": "16.00",
      "coin": "BANK_CUP",
      "coin_data": "[Object]",
      "created_at": "2023-10-09T23:43:41.000000Z",
      "id": 70509,
      "only_kyc": 0,
      "owner": "[Object]",
      "peer_id": 0,
      "private": 0,
      "receive": "4000.000000000000",
      "status": "open",
      "type": "sell",
      "updated_at": "2023-10-09T23:43:41.000000Z",
      "user_id": 198723,
      "uuid": "4f998a83-afde-4af8-bdf9-d1f702cc20ac"
    },
    {
      "amount": "5.00",
      "coin": "BANK_MLC",
      "coin_data": "[Object]",
      "created_at": "2023-10-09T23:39:41.000000Z",
      "id": 70507,
      "only_kyc": 0,
      "owner": "[Object]",
      "peer_id": 0,
      "private": 0,
      "receive": "6.000000000000",
      "status": "open",
      "type": "sell",
      "updated_at": "2023-10-09T23:39:41.000000Z",
      "user_id": 9908,
      "uuid": "bfa106e2-0376-412e-9a14-7e75996bc30b"
    },
    {
      "amount": "8.70",
      "coin": "BANK_CUP",
      "coin_data": "[Object]",
      "created_at": "2023-10-09T23:37:52.000000Z",
      "id": 70506,
      "only_kyc": 0,
      "owner": "[Object]",
      "peer_id": 0,
      "private": 0,
      "receive": "2236.000000000000",
      "status": "open",
      "type": "sell",
      "updated_at": "2023-10-09T23:37:52.000000Z",
      "user_id": 14953,
      "uuid": "5ae106cf-d3df-4cf9-8574-6fff08a25cdc"
    },
    {
      "amount": "21.00",
      "coin": "BANK_MLC",
      "coin_data": "[Object]",
      "created_at": "2023-10-09T23:20:20.000000Z",
      "id": 70504,
      "only_kyc": 0,
      "owner": "[Object]",
      "peer_id": 0,
      "private": 0,
      "receive": "25.200000000000",
      "status": "open",
      "type": "sell",
      "updated_at": "2023-10-09T23:20:20.000000Z",
      "user_id": 36470,
      "uuid": "8b82d425-b331-4b6d-bbd3-bc81947ace26"
    },
    {
      "amount": "30.00",
      "coin": "BOLSATM",
      "coin_data": "[Object]",
      "created_at": "2023-10-09T23:19:35.000000Z",
      "id": 70503,
      "only_kyc": 0,
      "owner": "[Object]",
      "peer_id": 0,
      "private": 0,
      "receive": "25.000000000000",
      "status": "open",
      "type": "buy",
      "updated_at": "2023-10-09T23:19:35.000000Z",
      "user_id": 36470,
      "uuid": "40552e61-efca-4d3a-998a-13f22a09c545"
    },
    {
      "amount": "10.00",
      "coin": "BANK_CUP",
      "coin_data": "[Object]",
      "created_at": "2023-10-09T22:47:58.000000Z",
      "id": 70495,
      "only_kyc": 0,
      "owner": "[Object]",
      "peer_id": 0,
      "private": 0,
      "receive": "2568.000000000000",
      "status": "open",
      "type": "sell",
      "updated_at": "2023-10-09T22:47:58.000000Z",
      "user_id": 1683,
      "uuid": "2e50115a-ac4d-4473-bd2b-783ed13c8da6"
    },
    {
      "amount": "2380.00",
      "coin": "BANK_MLC",
      "coin_data": "[Object]",
      "created_at": "2023-10-09T22:47:15.000000Z",
      "id": 70494,
      "only_kyc": 0,
      "owner": "[Object]",
      "peer_id": 0,
      "private": 0,
      "receive": "2665.000000000000",
      "status": "open",
      "type": "buy",
      "updated_at": "2023-10-09T22:47:15.000000Z",
      "user_id": 5444,
      "uuid": "73159ce3-cf8f-4fc7-b3c7-d17286e5d948"
    },
    {
      "amount": "295.00",
      "coin": "BANK_CUP",
      "coin_data": "[Object]",
      "created_at": "2023-10-09T22:35:55.000000Z",
      "id": 70493,
      "only_kyc": 0,
      "owner": "[Object]",
      "peer_id": 0,
      "private": 0,
      "receive": "75225.000000000000",
      "status": "open",
      "type": "buy",
      "updated_at": "2023-10-09T22:35:55.000000Z",
      "user_id": 188641,
      "uuid": "b4064598-0009-41ca-a2b3-2a7a43366913"
    },
    {
      "amount": "71.00",
      "coin": "BANK_MLC",
      "coin_data": "[Object]",
      "created_at": "2023-10-09T22:29:56.000000Z",
      "id": 70492,
      "only_kyc": 0,
      "owner": "[Object]",
      "peer_id": 0,
      "private": 0,
      "receive": "80.000000000000",
      "status": "open",
      "type": "buy",
      "updated_at": "2023-10-09T22:29:56.000000Z",
      "user_id": 775,
      "uuid": "09826c94-a506-4722-ba13-73f3c01a863b"
    },
    {
      "amount": "100.00",
      "coin": "BANK_CUP",
      "coin_data": "[Object]",
      "created_at": "2023-10-09T22:11:44.000000Z",
      "id": 70482,
      "only_kyc": 0,
      "owner": "[Object]",
      "peer_id": 0,
      "private": 0,
      "receive": "25000.000000000000",
      "status": "open",
      "type": "buy",
      "updated_at": "2023-10-09T22:11:44.000000Z",
      "user_id": 1714,
      "uuid": "537f976d-c19f-48da-b880-a17a3a0a2aa5"
    },
    {
      "amount": "618.00",
      "coin": "TROPIPAY",
      "coin_data": "[Object]",
      "created_at": "2023-10-09T21:56:08.000000Z",
      "id": 70480,
      "only_kyc": 0,
      "owner": "[Object]",
      "peer_id": 0,
      "private": 0,
      "receive": "600.000000000000",
      "status": "open",
      "type": "buy",
      "updated_at": "2023-10-09T21:56:08.000000Z",
      "user_id": 4278,
      "uuid": "2b118d2c-3c8b-44b1-94f8-571fc2364342"
    },
    {
      "amount": "202.00",
      "coin": "TROPIPAY",
      "coin_data": "[Object]",
      "created_at": "2023-10-09T20:58:28.000000Z",
      "id": 70466,
      "only_kyc": 0,
      "owner": "[Object]",
      "peer_id": 0,
      "private": 0,
      "receive": "200.000000000000",
      "status": "open",
      "type": "sell",
      "updated_at": "2023-10-09T20:58:28.000000Z",
      "user_id": 187786,
      "uuid": "a7a50cca-6f56-4edf-bbc9-aaf001231c74"
    },
    {
      "amount": "101.00",
      "coin": "TROPIPAY",
      "coin_data": "[Object]",
      "created_at": "2023-10-09T20:58:12.000000Z",
      "id": 70464,
      "only_kyc": 0,
      "owner": "[Object]",
      "peer_id": 0,
      "private": 0,
      "receive": "100.000000000000",
      "status": "open",
      "type": "sell",
      "updated_at": "2023-10-09T20:58:12.000000Z",
      "user_id": 187786,
      "uuid": "2c098c2e-dfa1-44d0-9bc9-916440cab826"
    },
    {
      "amount": "35.17",
      "coin": "BANK_CUP",
      "coin_data": "[Object]",
      "created_at": "2023-10-09T20:53:44.000000Z",
      "id": 70463,
      "only_kyc": 0,
      "owner": "[Object]",
      "peer_id": 0,
      "private": 0,
      "receive": "8860.850000000000",
      "status": "open",
      "type": "buy",
      "updated_at": "2023-10-09T20:53:44.000000Z",
      "user_id": 195428,
      "uuid": "2c3b7d00-8b18-4999-b084-66b4df2042d5"
    },
    {
      "amount": "34.00",
      "coin": "BANK_MLC",
      "coin_data": "[Object]",
      "created_at": "2023-10-09T20:52:12.000000Z",
      "id": 70461,
      "only_kyc": 0,
      "owner": "[Object]",
      "peer_id": 0,
      "private": 0,
      "receive": "39.440000000000",
      "status": "open",
      "type": "sell",
      "updated_at": "2023-10-09T20:52:12.000000Z",
      "user_id": 1714,
      "uuid": "ba5938a6-0500-41d0-be9a-620fb85a7186"
    },
    {
      "amount": "100.00",
      "coin": "BANK_MLC",
      "coin_data": "[Object]",
      "created_at": "2023-10-09T20:50:43.000000Z",
      "id": 70459,
      "only_kyc": 0,
      "owner": "[Object]",
      "peer_id": 0,
      "private": 0,
      "receive": "116.000000000000",
      "status": "open",
      "type": "sell",
      "updated_at": "2023-10-09T20:50:43.000000Z",
      "user_id": 1714,
      "uuid": "e5db34b1-d2ad-4a34-b894-41adbe0c335e"
    },
    {
      "amount": "3.00",
      "coin": "BANK_MLC",
      "coin_data": "[Object]",
      "created_at": "2023-10-09T20:47:22.000000Z",
      "id": 70458,
      "only_kyc": 0,
      "owner": "[Object]",
      "peer_id": 0,
      "private": 0,
      "receive": "3.390000000000",
      "status": "open",
      "type": "buy",
      "updated_at": "2023-10-09T20:47:22.000000Z",
      "user_id": 1714,
      "uuid": "d18bcb6c-738f-4975-a4ae-f70ed7466b0b"
    },
    {
      "amount": "100.00",
      "coin": "BANK_CUP",
      "coin_data": "[Object]",
      "created_at": "2023-10-09T20:34:07.000000Z",
      "id": 70451,
      "only_kyc": 0,
      "owner": "[Object]",
      "peer_id": 0,
      "private": 0,
      "receive": "25000.000000000000",
      "status": "open",
      "type": "buy",
      "updated_at": "2023-10-09T20:34:07.000000Z",
      "user_id": 2242,
      "uuid": "fc76ca51-a947-480b-bce1-bddcba93f366"
    },
    {
      "amount": "25.00",
      "coin": "BANK_MLC",
      "coin_data": "[Object]",
      "created_at": "2023-10-09T20:32:25.000000Z",
      "id": 70450,
      "only_kyc": 0,
      "owner": "[Object]",
      "peer_id": 0,
      "private": 0,
      "receive": "28.600000000000",
      "status": "open",
      "type": "sell",
      "updated_at": "2023-10-09T20:32:25.000000Z",
      "user_id": 5444,
      "uuid": "336070d4-cf87-479c-b0f9-0a578a707842"
    },
    {
      "amount": "75.00",
      "coin": "BANK_MLC",
      "coin_data": "[Object]",
      "created_at": "2023-10-09T20:31:01.000000Z",
      "id": 70449,
      "only_kyc": 0,
      "owner": "[Object]",
      "peer_id": 0,
      "private": 0,
      "receive": "85.850000000000",
      "status": "open",
      "type": "sell",
      "updated_at": "2023-10-09T20:31:01.000000Z",
      "user_id": 5444,
      "uuid": "bf889bbe-37f1-4d2e-9cc3-e5c8dc18bca5"
    },
    {
      "amount": "200.00",
      "coin": "BANK_CUP",
      "coin_data": "[Object]",
      "created_at": "2023-10-09T20:27:45.000000Z",
      "id": 70446,
      "only_kyc": 0,
      "owner": "[Object]",
      "peer_id": 0,
      "private": 0,
      "receive": "50000.000000000000",
      "status": "open",
      "type": "buy",
      "updated_at": "2023-10-09T20:27:45.000000Z",
      "user_id": 2242,
      "uuid": "33b35c11-cbd5-41c3-99ee-aa2d2dbb7a51"
    },
    {
      "amount": "300.00",
      "coin": "BANK_CUP",
      "coin_data": "[Object]",
      "created_at": "2023-10-09T20:27:00.000000Z",
      "id": 70445,
      "only_kyc": 0,
      "owner": "[Object]",
      "peer_id": 0,
      "private": 0,
      "receive": "75000.000000000000",
      "status": "open",
      "type": "buy",
      "updated_at": "2023-10-09T20:27:00.000000Z",
      "user_id": 2242,
      "uuid": "fd39c258-a8de-4eaf-94a9-8d9f02f0628f"
    },
    {
      "amount": "400.00",
      "coin": "BANK_CUP",
      "coin_data": "[Object]",
      "created_at": "2023-10-09T20:26:22.000000Z",
      "id": 70444,
      "only_kyc": 0,
      "owner": "[Object]",
      "peer_id": 0,
      "private": 0,
      "receive": "100000.000000000000",
      "status": "open",
      "type": "buy",
      "updated_at": "2023-10-09T20:26:22.000000Z",
      "user_id": 2242,
      "uuid": "51a2c27b-7a2a-4031-a10d-adee21513e5b"
    },
    {
      "amount": "60.00",
      "coin": "BANK_CUP",
      "coin_data": "[Object]",
      "created_at": "2023-10-09T20:06:16.000000Z",
      "id": 70437,
      "only_kyc": 0,
      "owner": "[Object]",
      "peer_id": 0,
      "private": 0,
      "receive": "15480.000000000000",
      "status": "open",
      "type": "sell",
      "updated_at": "2023-10-09T21:43:49.000000Z",
      "user_id": 32915,
      "uuid": "2f7d1017-1d5d-43c9-b5e0-8320946862f2"
    },
    {
      "amount": "200.00",
      "coin": "BANK_MLC",
      "coin_data": "[Object]",
      "created_at": "2023-10-09T20:04:54.000000Z",
      "id": 70433,
      "only_kyc": 0,
      "owner": "[Object]",
      "peer_id": 0,
      "private": 0,
      "receive": "224.000000000000",
      "status": "open",
      "type": "buy",
      "updated_at": "2023-10-09T20:04:54.000000Z",
      "user_id": 190264,
      "uuid": "b5b64b63-266d-42d9-a69c-904f43ebb83e"
    },
    {
      "amount": "100.00",
      "coin": "BANK_MLC",
      "coin_data": "[Object]",
      "created_at": "2023-10-09T19:56:12.000000Z",
      "id": 70431,
      "only_kyc": 0,
      "owner": "[Object]",
      "peer_id": 0,
      "private": 0,
      "receive": "113.000000000000",
      "status": "open",
      "type": "buy",
      "updated_at": "2023-10-09T23:29:03.000000Z",
      "user_id": 1714,
      "uuid": "c148e510-491e-4869-8126-1f4ed9077fa6"
    },
    {
      "amount": "100.00",
      "coin": "BANK_MLC",
      "coin_data": "[Object]",
      "created_at": "2023-10-09T19:54:05.000000Z",
      "id": 70430,
      "only_kyc": 0,
      "owner": "[Object]",
      "peer_id": 0,
      "private": 0,
      "receive": "112.000000000000",
      "status": "open",
      "type": "buy",
      "updated_at": "2023-10-09T19:54:05.000000Z",
      "user_id": 2242,
      "uuid": "3f2e690c-38f8-4d6e-80e9-c0edf0a3c08f"
    },
    {
      "amount": "120.00",
      "coin": "BANK_MLC",
      "coin_data": "[Object]",
      "created_at": "2023-10-09T19:53:28.000000Z",
      "id": 70429,
      "only_kyc": 0,
      "owner": "[Object]",
      "peer_id": 0,
      "private": 0,
      "receive": "134.400000000000",
      "status": "open",
      "type": "buy",
      "updated_at": "2023-10-09T19:53:28.000000Z",
      "user_id": 2242,
      "uuid": "1121fda7-572c-44df-9fe4-dc0a2379a21e"
    },
    {
      "amount": "150.00",
      "coin": "BANK_MLC",
      "coin_data": "[Object]",
      "created_at": "2023-10-09T19:52:41.000000Z",
      "id": 70428,
      "only_kyc": 0,
      "owner": "[Object]",
      "peer_id": 0,
      "private": 0,
      "receive": "168.000000000000",
      "status": "open",
      "type": "buy",
      "updated_at": "2023-10-09T19:52:41.000000Z",
      "user_id": 2242,
      "uuid": "93a9c0fa-5617-4d2a-b4e9-5b96dedbe099"
    },
    {
      "amount": "56.00",
      "coin": "BANK_CUP",
      "coin_data": "[Object]",
      "created_at": "2023-10-09T19:23:09.000000Z",
      "id": 70419,
      "only_kyc": 0,
      "owner": "[Object]",
      "peer_id": 0,
      "private": 0,
      "receive": "14000.000000000000",
      "status": "open",
      "type": "buy",
      "updated_at": "2023-10-09T19:23:09.000000Z",
      "user_id": 14112,
      "uuid": "cf969c7a-abf6-427e-bad0-ca93b4e96723"
    },
    {
      "amount": "105.00",
      "coin": "TROPIPAY",
      "coin_data": "[Object]",
      "created_at": "2023-10-09T19:20:41.000000Z",
      "id": 70418,
      "only_kyc": 0,
      "owner": "[Object]",
      "peer_id": 0,
      "private": 0,
      "receive": "100.000000000000",
      "status": "open",
      "type": "buy",
      "updated_at": "2023-10-09T19:20:41.000000Z",
      "user_id": 51369,
      "uuid": "bcedcfa3-c8ad-4661-80ee-e208d768cf5a"
    },
    {
      "amount": "17.08",
      "coin": "BANK_CUP",
      "coin_data": "[Object]",
      "created_at": "2023-10-09T19:15:05.000000Z",
      "id": 70417,
      "only_kyc": 0,
      "owner": "[Object]",
      "peer_id": 0,
      "private": 0,
      "receive": "4699.000000000000",
      "status": "open",
      "type": "sell",
      "updated_at": "2023-10-09T19:15:05.000000Z",
      "user_id": 198711,
      "uuid": "36db32a3-e740-4cd9-858e-12fd2c695cee"
    },
    {
      "amount": "100.00",
      "coin": "BANK_CUP",
      "coin_data": "[Object]",
      "created_at": "2023-10-09T18:35:20.000000Z",
      "id": 70402,
      "only_kyc": 0,
      "owner": "[Object]",
      "peer_id": 0,
      "private": 0,
      "receive": "25000.000000000000",
      "status": "open",
      "type": "buy",
      "updated_at": "2023-10-09T18:35:20.000000Z",
      "user_id": 189258,
      "uuid": "84aea5f3-930d-4aea-ab1c-53474a7d521d"
    },
    {
      "amount": "400.00",
      "coin": "BANK_MLC",
      "coin_data": "[Object]",
      "created_at": "2023-10-09T18:25:30.000000Z",
      "id": 70396,
      "only_kyc": 0,
      "owner": "[Object]",
      "peer_id": 0,
      "private": 0,
      "receive": "460.000000000000",
      "status": "open",
      "type": "sell",
      "updated_at": "2023-10-09T18:27:07.000000Z",
      "user_id": 23869,
      "uuid": "72328794-cd5f-4409-aa59-2ffde029532c"
    },
    {
      "amount": "30.00",
      "coin": "BANK_MLC",
      "coin_data": "[Object]",
      "created_at": "2023-10-09T18:24:35.000000Z",
      "id": 70394,
      "only_kyc": 0,
      "owner": "[Object]",
      "peer_id": 0,
      "private": 0,
      "receive": "34.500000000000",
      "status": "open",
      "type": "sell",
      "updated_at": "2023-10-09T18:24:35.000000Z",
      "user_id": 23869,
      "uuid": "2061af10-1e85-4c8b-9f61-9b9eb0fad2bf"
    },
    {
      "amount": "10.00",
      "coin": "BANK_MLC",
      "coin_data": "[Object]",
      "created_at": "2023-10-09T17:19:30.000000Z",
      "id": 70366,
      "only_kyc": 0,
      "owner": "[Object]",
      "peer_id": 0,
      "private": 0,
      "receive": "12.500000000000",
      "status": "open",
      "type": "sell",
      "updated_at": "2023-10-09T17:19:30.000000Z",
      "user_id": 49945,
      "uuid": "e04fc608-064f-4c5f-8323-450433ca45e4"
    },
    {
      "amount": "90.00",
      "coin": "BANK_MLC",
      "coin_data": "[Object]",
      "created_at": "2023-10-09T17:13:48.000000Z",
      "id": 70360,
      "only_kyc": 0,
      "owner": "[Object]",
      "peer_id": 0,
      "private": 0,
      "receive": "101.250000000000",
      "status": "open",
      "type": "buy",
      "updated_at": "2023-10-09T17:13:48.000000Z",
      "user_id": 189258,
      "uuid": "4b707988-e722-456a-8374-ddeb254b7e07"
    },
    {
      "amount": "7.88",
      "coin": "BANK_CUP",
      "coin_data": "[Object]",
      "created_at": "2023-10-09T17:06:47.000000Z",
      "id": 70357,
      "only_kyc": 0,
      "owner": "[Object]",
      "peer_id": 0,
      "private": 0,
      "receive": "2040.000000000000",
      "status": "open",
      "type": "sell",
      "updated_at": "2023-10-09T17:06:47.000000Z",
      "user_id": 4626,
      "uuid": "ab6b9deb-377c-4c28-b621-7a6872f5a400"
    },
    {
      "amount": "20.00",
      "coin": "BANK_CUP",
      "coin_data": "[Object]",
      "created_at": "2023-10-09T15:22:13.000000Z",
      "id": 70337,
      "only_kyc": 0,
      "owner": "[Object]",
      "peer_id": 0,
      "private": 0,
      "receive": "5200.000000000000",
      "status": "open",
      "type": "sell",
      "updated_at": "2023-10-09T15:22:13.000000Z",
      "user_id": 14147,
      "uuid": "7fc3c384-1cb3-4123-8baf-0ddae3f71740"
    },
    {
      "amount": "50.00",
      "coin": "BANK_MLC",
      "coin_data": "[Object]",
      "created_at": "2023-10-09T14:10:32.000000Z",
      "id": 70320,
      "only_kyc": 0,
      "owner": "[Object]",
      "peer_id": 0,
      "private": 0,
      "receive": "58.000000000000",
      "status": "open",
      "type": "sell",
      "updated_at": "2023-10-09T18:28:25.000000Z",
      "user_id": 190264,
      "uuid": "f2cbeb45-6179-4a87-a870-6642e1299ff0"
    },
    {
      "amount": "100.00",
      "coin": "TROPIPAY",
      "coin_data": "[Object]",
      "created_at": "2023-10-09T13:46:34.000000Z",
      "id": 70304,
      "only_kyc": 0,
      "owner": "[Object]",
      "peer_id": 0,
      "private": 0,
      "receive": "96.000000000000",
      "status": "open",
      "type": "buy",
      "updated_at": "2023-10-09T13:46:34.000000Z",
      "user_id": 190351,
      "uuid": "c9653a84-1e87-43f5-8548-dd98418b0fb6"
    },
    {
      "amount": "70.00",
      "coin": "BANK_CUP",
      "coin_data": "[Object]",
      "created_at": "2023-10-09T13:02:51.000000Z",
      "id": 70289,
      "only_kyc": 0,
      "owner": "[Object]",
      "peer_id": 0,
      "private": 0,
      "receive": "17535.000000000000",
      "status": "open",
      "type": "buy",
      "updated_at": "2023-10-09T13:02:51.000000Z",
      "user_id": 11978,
      "uuid": "171faea8-ede7-4fd3-87be-a4dcfbd68645"
    },
    {
      "amount": "150.00",
      "coin": "BANK_MLC",
      "coin_data": "[Object]",
      "created_at": "2023-10-09T12:05:46.000000Z",
      "id": 70283,
      "only_kyc": 1,
      "owner": "[Object]",
      "peer_id": 0,
      "private": 0,
      "receive": "170.700000000000",
      "status": "open",
      "type": "buy",
      "updated_at": "2023-10-09T17:19:59.000000Z",
      "user_id": 6652,
      "uuid": "4e963b86-8af6-4f2f-9c93-7860f9632e23"
    },
    {
      "amount": "90.00",
      "coin": "BANK_MLC",
      "coin_data": "[Object]",
      "created_at": "2023-10-09T10:41:45.000000Z",
      "id": 70278,
      "only_kyc": 0,
      "owner": "[Object]",
      "peer_id": 0,
      "private": 0,
      "receive": "101.250000000000",
      "status": "open",
      "type": "buy",
      "updated_at": "2023-10-09T10:41:45.000000Z",
      "user_id": 189258,
      "uuid": "c9b69032-e47e-4f54-bc30-76966adc84e6"
    },
    {
      "amount": "300.00",
      "coin": "BANK_CUP",
      "coin_data": "[Object]",
      "created_at": "2023-10-09T04:23:39.000000Z",
      "id": 70258,
      "only_kyc": 0,
      "owner": "[Object]",
      "peer_id": 0,
      "private": 0,
      "receive": "75000.000000000000",
      "status": "open",
      "type": "buy",
      "updated_at": "2023-10-09T04:23:39.000000Z",
      "user_id": 6238,
      "uuid": "9606e484-aab1-4615-96db-948f5803f9b5"
    },
    {
      "amount": "30.00",
      "coin": "BOLSATM",
      "coin_data": "[Object]",
      "created_at": "2023-10-09T04:04:02.000000Z",
      "id": 70256,
      "only_kyc": 0,
      "owner": "[Object]",
      "peer_id": 0,
      "private": 0,
      "receive": "29.000000000000",
      "status": "open",
      "type": "buy",
      "updated_at": "2023-10-09T04:04:02.000000Z",
      "user_id": 41738,
      "uuid": "520b1b32-6707-4dbd-8e25-32dd203fed1e"
    },
    {
      "amount": "200.00",
      "coin": "TROPIPAY",
      "coin_data": "[Object]",
      "created_at": "2023-10-09T01:55:23.000000Z",
      "id": 70236,
      "only_kyc": 0,
      "owner": "[Object]",
      "peer_id": 0,
      "private": 0,
      "receive": "192.000000000000",
      "status": "open",
      "type": "buy",
      "updated_at": "2023-10-09T01:55:23.000000Z",
      "user_id": 43403,
      "uuid": "3448a189-1094-471e-8e31-5cae7386692d"
    },
    {
      "amount": "200.00",
      "coin": "BANK_MLC",
      "coin_data": "[Object]",
      "created_at": "2023-10-09T01:17:45.000000Z",
      "id": 70234,
      "only_kyc": 0,
      "owner": "[Object]",
      "peer_id": 0,
      "private": 0,
      "receive": "226.000000000000",
      "status": "open",
      "type": "buy",
      "updated_at": "2023-10-09T01:17:45.000000Z",
      "user_id": 197132,
      "uuid": "4b7c6af0-eb3d-4804-b06d-d0b422986776"
    }
  ],
  "first_page_url": "https://qvapay.com/api/p2p/index?page=1",
  "from": 1,
  "last_page": 2,
  "last_page_url": "https://qvapay.com/api/p2p/index?page=2",
  "links": [
    { "active": false, "label": "&laquo; Anterior", "url": null },
    {
      "active": true,
      "label": "1",
      "url": "https://qvapay.com/api/p2p/index?page=1"
    },
    {
      "active": false,
      "label": "2",
      "url": "https://qvapay.com/api/p2p/index?page=2"
    },
    {
      "active": false,
      "label": "Siguiente &raquo;",
      "url": "https://qvapay.com/api/p2p/index?page=2"
    }
  ],
  "next_page_url": "https://qvapay.com/api/p2p/index?page=2",
  "path": "https://qvapay.com/api/p2p/index",
  "per_page": 50,
  "prev_page_url": null,
  "to": 50,
  "total": 67
}
